<svg width="14" height="14" viewBox="0 0 14 14" fill="none" xmlns="http://www.w3.org/2000/svg">
    <mask id="mask0" mask-type="alpha" maskUnits="userSpaceOnUse" x="0" y="0" width="14" height="14">
        <circle cx="7" cy="7" r="6.5" fill="white" stroke="#39475F"/>
    </mask>
    <g mask="url(#mask0)">
        <circle cx="7" cy="14" r="6.5" stroke="#39475F"/>
        <circle cx="6.99996" cy="4.66668" r="1.83333" stroke="#39475F"/>
        <circle cx="7" cy="7" r="6.5" stroke="#39475F"/>
    </g>
</svg>
