<svg width="16" height="17" viewBox="0 0 16 17" fill="none"
     xmlns="http://www.w3.org/2000/svg">
    <path
        d="M8 5.22738C3.40227 1.02711 -2.81827 7.85225 8 14.94C18.8183 7.85225 12.5977 1.02711 8 5.22738Z"
        stroke="#39475F" stroke-linejoin="round"/>
</svg>
