<svg width="16" height="17" viewBox="0 0 16 17" fill="none"
     xmlns="http://www.w3.org/2000/svg">
    <path d="M2 4.94003H14M2 4.94003V13.94H14V4.94003M2 4.94003L8 9.84912L14 4.94003"
          stroke="#39475F" stroke-linejoin="round"/>
</svg>
