<svg width="16" height="16" viewBox="0 0 16 16" fill="none" xmlns="http://www.w3.org/2000/svg">
    <path
        d="M4.43381 8H2.5C2.22386 8 2 8.22386 2 8.5V13.5C2 13.7761 2.22386 14 2.5 14L12.5 14C13.6046 14 14.5 13.1046 14.5 12V8C14.5 6.89543 13.6046 6 12.5 6H10C9.72386 6 9.5 5.77614 9.5 5.5V3C9.5 1.89543 8.60457 1 7.5 1H7C6.72386 1 6.5 1.22386 6.5 1.5V5.22302C6.5 5.40426 6.45074 5.5821 6.35749 5.73751L5.2913 7.5145C5.11058 7.8157 4.78507 8 4.43381 8ZM4.43381 8L4.5 14"
        stroke="#39475F"/>
</svg>
