<svg width="16" height="16" viewBox="0 0 16 16" fill="none" xmlns="http://www.w3.org/2000/svg">
    <path d="M11.546 3.06066C11.7412 2.8654 12.0578 2.8654 12.2531 3.06066L13.6673 4.47487C13.8625 4.67014 13.8625 4.98672 13.6673 5.18198L6.94976 11.8995L4.82844 9.77817L11.546 3.06066Z" stroke="#39475F"/>
    <path d="M3.99383 12.7341L5.15807 12.5827L4.14526 11.5699L3.99383 12.7341Z" stroke="#39475F"/>
</svg>
