<svg width="16" height="16" viewBox="0 0 16 16" fill="none" xmlns="http://www.w3.org/2000/svg">
    <circle cx="8" cy="8" r="6.5" stroke="#39475F"/>
    <path
        d="M7.2642 9.55643V9.55594C7.26638 9.33673 7.2806 9.27279 7.30533 9.16162C7.31347 9.12502 7.32276 9.08329 7.33312 9.02922C7.37611 8.80494 7.43231 8.61371 7.5023 8.45631C7.57261 8.29562 7.6692 8.1483 7.79178 8.01442L7.79218 8.01399C7.916 7.88191 8.04052 7.77237 8.16583 7.68586C8.16586 7.68585 8.16588 7.68583 8.1659 7.68582L8.1943 7.72697C8.31902 7.64029 8.4735 7.54596 8.65774 7.44398L7.2642 9.55643ZM7.2642 9.55643C7.2642 9.7437 7.41601 9.89551 7.60328 9.89551H8.04553C8.23264 9.89551 8.38436 9.74395 8.38461 9.5569M7.2642 9.55643L8.38461 9.5569M8.38461 9.5569C8.38461 9.55704 8.3846 9.55718 8.3846 9.55732L8.33461 9.55643H8.38461C8.38461 9.55659 8.38461 9.55674 8.38461 9.5569ZM7.85842 12.1594C8.08 12.1594 8.27204 12.0876 8.43182 11.9439C8.59175 11.8 8.67372 11.625 8.67372 11.421C8.67372 11.2171 8.59175 11.042 8.43182 10.8982C8.27204 10.7545 8.08 10.6827 7.85842 10.6827C7.63684 10.6827 7.4448 10.7545 7.28502 10.8982C7.12509 11.042 7.04311 11.2171 7.04311 11.421C7.04311 11.625 7.12509 11.8 7.28502 11.9439C7.4448 12.0876 7.63684 12.1594 7.85842 12.1594Z"
        fill="#39475F" stroke="#39475F" stroke-width="0.1"/>
</svg>
