<svg width="16" height="16" viewBox="0 0 16 16" fill="none" xmlns="http://www.w3.org/2000/svg">
    <rect x="4.5" y="4.5" width="7" height="9" rx="0.5" stroke="#39475F"/>
    <line x1="6.5" y1="6.5" x2="6.5" y2="11.5" stroke="#39475F" stroke-linecap="round"/>
    <line x1="9.5" y1="6.5" x2="9.5" y2="11.5" stroke="#39475F" stroke-linecap="round"/>
    <line x1="3.5" y1="4.5" x2="12.5" y2="4.5" stroke="#39475F" stroke-linecap="round"/>
    <rect x="6" y="2" width="4" height="1" rx="0.5" fill="#39475F"/>
</svg>
